
(module JST_BM05B-GHS-TBT_LF__SN__N_ (layer F.Cu) (tedit 635240F5)
  (descr "")
  (fp_text reference REF** (at -1.925 -5.06 0) (layer F.SilkS)
    (effects (font (size 1.0 1.0) (thickness 0.15)))
  )
  (fp_text value JST_BM05B-GHS-TBT_LF__SN__N_ (at 12.68 4.31 0) (layer F.Fab)
    (effects (font (size 1.0 1.0) (thickness 0.15)))
  )
  (pad 1 smd rect (at 2.5 -2.325) (size 0.6 1.7) (layers F.Cu F.Mask F.Paste))
  (pad S2 smd rect (at 4.35 1.025) (size 1.0 2.8) (layers F.Cu F.Mask F.Paste))
  (pad 2 smd rect (at 1.25 -2.325) (size 0.6 1.7) (layers F.Cu F.Mask F.Paste))
  (pad 3 smd rect (at 0.0 -2.325) (size 0.6 1.7) (layers F.Cu F.Mask F.Paste))
  (pad 4 smd rect (at -1.25 -2.325) (size 0.6 1.7) (layers F.Cu F.Mask F.Paste))
  (pad 5 smd rect (at -2.5 -2.325) (size 0.6 1.7) (layers F.Cu F.Mask F.Paste))
  (pad S1 smd rect (at -4.35 1.025) (size 1.0 2.8) (layers F.Cu F.Mask F.Paste))
  (fp_line (start -4.75 -2.125) (end 4.75 -2.125) (layer F.Fab) (width 0.127))
  (fp_line (start 4.75 -2.125) (end 4.75 2.125) (layer F.Fab) (width 0.127))
  (fp_line (start 4.75 2.125) (end -4.75 2.125) (layer F.Fab) (width 0.127))
  (fp_line (start -4.75 2.125) (end -4.75 -2.125) (layer F.Fab) (width 0.127))
  (fp_line (start -4.75 -2.125) (end -3.12 -2.125) (layer F.SilkS) (width 0.127))
  (fp_line (start 3.12 -2.125) (end 4.75 -2.125) (layer F.SilkS) (width 0.127))
  (fp_line (start 4.75 -2.125) (end 4.75 -0.695) (layer F.SilkS) (width 0.127))
  (fp_line (start -3.53 2.125) (end 3.53 2.125) (layer F.SilkS) (width 0.127))
  (fp_line (start -4.75 -0.695) (end -4.75 -2.125) (layer F.SilkS) (width 0.127))
  (fp_line (start -5.1 -3.425) (end -5.1 2.675) (layer F.CrtYd) (width 0.05))
  (fp_line (start -5.1 2.675) (end 5.1 2.675) (layer F.CrtYd) (width 0.05))
  (fp_line (start 5.1 2.675) (end 5.1 -3.425) (layer F.CrtYd) (width 0.05))
  (fp_line (start 5.1 -3.425) (end -5.1 -3.425) (layer F.CrtYd) (width 0.05))
  (fp_circle (center 2.5 -4.175) (end 2.6 -4.175) (layer F.SilkS) (width 0.2))
  (fp_circle (center 2.5 -4.175) (end 2.6 -4.175) (layer F.Fab) (width 0.2))
)